mux2_1/vivado/Mux2_1.sim/sim_1/behav/modelsim/simulate.log
# //  ModelSim SE-64 10.5 Feb 13 2016 
# //
# //  Copyright 1991-2016 Mentor Graphics Corporation
# //  All Rights Reserved.
# //
# //  ModelSim SE-64 and its associated documentation contain trade
# //  secrets and commercial or financial information that are the property of
# //  Mentor Graphics Corporation and are privileged, confidential,
# //  and exempt from disclosure under the Freedom of Information Act,
# //  5 U.S.C. Section 552. Furthermore, this information
# //  is prohibited from disclosure under the Trade Secrets Act,
# //  18 U.S.C. Section 1905.
# //
# do {tb_Mux2_1_simulate.do}
# vsim -voptargs=""+acc"" -L xil_defaultlib -L unisims_ver -L unimacro_ver -L secureip -lib xil_defaultlib xil_defaultlib.tb_Mux2_1 xil_defaultlib.glbl 
# Start time: 19:56:18 on Sep 01,2023
# ** Note: (vsim-8009) Loading existing optimized design _opt
# Loading work.tb_Mux2_1(fast)
# Loading work.Mux2_1(fast)
# Loading work.glbl(fast)
# ** Warning: (vsim-PLI-3003) ../../../../../rtl/tb_Mux2_1.v(23): [TOFD] - System task or function '$timefromat' is not defined.
#    Time: 0 ps  Iteration: 0  Instance: /tb_Mux2_1 File: ../../../../../rtl/tb_Mux2_1.v
# 1
# 1
# .main_pane.wave.interior.cs.body.pw.wf
# .main_pane.structure.interior.cs.body.struct
# .main_pane.objects.interior.cs.body.tree
# ** Error (suppressible): (vsim-12023) ../../../../../rtl/tb_Mux2_1.v(23): Cannot execute undefined system task/function '$timefromat'
# @time                    0:in1=0 in2=0 sel=0 out=0
# @time                10000:in1=0 in2=1 sel=1 out=1
# @time                20000:in1=1 in2=1 sel=1 out=1
# @time                30000:in1=1 in2=0 sel=1 out=0
# @time                60000:in1=0 in2=1 sel=0 out=0
# @time                70000:in1=1 in2=1 sel=0 out=1
# @time                80000:in1=1 in2=0 sel=0 out=1
# @time                90000:in1=0 in2=1 sel=0 out=0
# @time               100000:in1=1 in2=1 sel=1 out=1
# @time               110000:in1=1 in2=0 sel=0 out=1
# @time               120000:in1=0 in2=0 sel=1 out=0
# @time               130000:in1=0 in2=1 sel=1 out=1
# @time               140000:in1=1 in2=1 sel=1 out=1
# @time               150000:in1=0 in2=0 sel=1 out=0
# @time               160000:in1=1 in2=1 sel=0 out=1
# @time               170000:in1=0 in2=0 sel=0 out=0
# @time               180000:in1=0 in2=1 sel=0 out=0
# @time               190000:in1=0 in2=1 sel=1 out=1
# @time               200000:in1=0 in2=0 sel=0 out=0
# @time               210000:in1=0 in2=0 sel=1 out=0
# @time               220000:in1=1 in2=1 sel=1 out=1
# @time               230000:in1=1 in2=0 sel=0 out=1
# @time               240000:in1=1 in2=1 sel=1 out=1
# @time               250000:in1=0 in2=0 sel=1 out=0
# @time               260000:in1=1 in2=0 sel=1 out=0
# @time               280000:in1=1 in2=1 sel=0 out=1
# @time               300000:in1=0 in2=0 sel=0 out=0
# @time               310000:in1=1 in2=1 sel=0 out=1
# @time               320000:in1=0 in2=1 sel=1 out=1
# @time               330000:in1=1 in2=1 sel=1 out=1
# @time               340000:in1=0 in2=1 sel=1 out=1
# @time               350000:in1=1 in2=0 sel=0 out=1
# @time               360000:in1=0 in2=0 sel=0 out=0
# @time               370000:in1=0 in2=0 sel=1 out=0
# @time               380000:in1=1 in2=1 sel=1 out=1
# @time               390000:in1=1 in2=0 sel=1 out=0
# @time               400000:in1=1 in2=0 sel=0 out=1
# @time               410000:in1=1 in2=1 sel=0 out=1
# @time               420000:in1=1 in2=1 sel=1 out=1
# @time               430000:in1=1 in2=0 sel=0 out=1
# @time               440000:in1=0 in2=1 sel=0 out=0
# @time               450000:in1=0 in2=0 sel=1 out=0
# @time               460000:in1=1 in2=0 sel=0 out=1
# @time               480000:in1=0 in2=1 sel=0 out=0
# @time               500000:in1=1 in2=1 sel=1 out=1
# @time               510000:in1=1 in2=1 sel=0 out=1
# @time               520000:in1=0 in2=0 sel=1 out=0
# @time               540000:in1=1 in2=0 sel=0 out=1
# @time               550000:in1=0 in2=1 sel=1 out=1
# @time               560000:in1=0 in2=0 sel=0 out=0
# @time               570000:in1=1 in2=1 sel=0 out=1
# @time               580000:in1=0 in2=0 sel=1 out=0
# @time               600000:in1=0 in2=0 sel=0 out=0
# @time               610000:in1=1 in2=0 sel=1 out=0
# @time               620000:in1=1 in2=0 sel=0 out=1
# @time               630000:in1=0 in2=0 sel=1 out=0
# @time               640000:in1=0 in2=0 sel=0 out=0
# @time               650000:in1=0 in2=1 sel=1 out=1
# @time               660000:in1=1 in2=0 sel=1 out=0
# @time               670000:in1=1 in2=1 sel=0 out=1
# @time               680000:in1=0 in2=1 sel=1 out=1
# @time               690000:in1=1 in2=1 sel=1 out=1
# @time               700000:in1=0 in2=1 sel=1 out=1
# @time               710000:in1=0 in2=0 sel=0 out=0
# @time               720000:in1=0 in2=1 sel=1 out=1
# @time               730000:in1=0 in2=0 sel=1 out=0
# @time               770000:in1=1 in2=1 sel=0 out=1
# @time               780000:in1=0 in2=0 sel=1 out=0
# @time               800000:in1=0 in2=0 sel=0 out=0
# @time               810000:in1=0 in2=1 sel=0 out=0
# @time               820000:in1=0 in2=0 sel=1 out=0
# @time               830000:in1=1 in2=0 sel=1 out=0
# @time               840000:in1=1 in2=1 sel=1 out=1
# @time               850000:in1=0 in2=1 sel=1 out=1
# @time               860000:in1=1 in2=0 sel=0 out=1
# @time               880000:in1=1 in2=1 sel=0 out=1
# @time               890000:in1=0 in2=1 sel=0 out=0
# @time               910000:in1=1 in2=1 sel=0 out=1
# @time               920000:in1=1 in2=0 sel=1 out=0
# @time               930000:in1=0 in2=0 sel=1 out=0
# @time               940000:in1=0 in2=0 sel=0 out=0
# @time               950000:in1=1 in2=1 sel=1 out=1
# @time               960000:in1=1 in2=1 sel=0 out=1
# @time               970000:in1=1 in2=1 sel=1 out=1
# @time               980000:in1=0 in2=0 sel=0 out=0
# End time: 19:57:42 on Sep 01,2023, Elapsed time: 0:01:24
# Errors: 1, Warnings: 1
